Homework_14_dec
…
library(tidytext)

## Warning: package 'tidytext' was built under R version 3.5.2

library(ggplot2)
stop_list <- read_csv("stop_list.csv")

## Parsed with column specification:
## cols(
##   word = col_character()
## )

stop_list

## # A tibble: 559 x 1
##    word   
##    <chr>  
##  1 c      
##  2       
##  3    
##  4     
##  5   
##  6  
##  7   
##  8  
##  9 
## 10   
## #  with 549 more rows
…
